Assignment_econometrics_Malenesr-and-Raojiaxiu
…
`summarise()` has grouped output by 'nuts2'. You can override using the
`.groups` argument.

3.1 Description of Ginie dataset

The new data is presented in a table with three columns: “nuts2 string”, “Year” and the “Ginie calculation”. All three countries belonging to our group are presented below in the same table. The table contains 1020 rows.

Show the code

ginidata

# A tibble: 1,020 × 3
# Groups:   nuts2 [51]
   nuts2  Year  gini
   <chr> <dbl> <dbl>
 1 DE11   2000 0.359
 2 DE11   2001 0.369
 3 DE11   2002 0.378
 4 DE11   2003 0.381
 5 DE11   2004 0.376
 6 DE11   2005 0.369
 7 DE11   2006 0.369
 8 DE11   2007 0.365
 9 DE11   2008 0.352
10 DE11   2009 0.349
# … with 1,010 more rows
…
